{
    "status": "success",
    "message": "berhasil memuat data",
    "data": {
        "account_id": "ID_12202308133364",
        "email": "agent@mail.com",
        "full_name": "Alex (Agen)",
        "phone": "626262626262",
        "picture_profile_file": "storage/data/image/users/LFT-alex-agen-20240219.jpeg",
        "image_cover": null,
        "address": "yogyaka",
        "city": "KABUPATEN NIAS",
        "province": "SUMATERA UTARA",
        "description": "Saya sangat tertarik dengan proyek properti yang Anda promosikan. Lokasinya sangat menarik dan fasilitas yang ditawarkan sangat sesuai dengan kebutuhan saya. Saya ingin segera mendapatkan informasi lebih lanjut dan melakukan pembelian.",
        "website": "propertio.id",
        "area_specialist": "yogyakarta",
        "languages": [
            "English"
        ],
        "specialists": [
            {
                "name": "Apartemen",
                "icon": "storage/data/image/property_type/U-PP-Apartemen-20231231.svg"
            }
        ],
        "properties": {
            "data": [
                {
                    "property_code": "PT_Rumah-122023121791149",
                    "title": "Rumah di Cijera Gempol Sari Bandung",
                    "headline": "Rumah di Cijera Gempol Sari",
                    "slug": "rumah-maguwo",
                    "property_type": {
                        "name": "Rumah",
                        "icon": "storage/data/image/property_type/U-PP-Rumah-20231231.svg"
                    },
                    "listing_type": "sell",
                    "posted_at": "2024-02-29 14:15:16",
                    "price": "1300000000",
                    "photo": "storage/data/image/property/property_photos/P-PP-rumah_di_cijera_gemp5-20240202.jpeg",
                    "address": {
                        "address": "Jalan CIjera",
                        "district": "BANDUNG KULON",
                        "city": "KOTA BANDUNG",
                        "province": "JAWA BARAT"
                    },
                    "certificate": "SHGB",
                    "count_views": 368,
                    "count_leads": 233,
                    "status": "active",
                    "bedroom": "2",
                    "bathroom": "2",
                    "is_favorites": false,
                    "area": "181",
                    "agent": {
                        "full_name": "Alex (Agen)",
                        "picture_profile_file": "storage/data/image/users/LFT-alex-agen-20240219.jpeg"
                    },
                    "property_photo": [
                        {
                            "caption": null,
                            "filename": "storage/data/image/property/property_photos/P-PP-rumah_di_cijera_gemp4-20240202.jpeg",
                            "is_cover": "0"
                        },
                        {
                            "caption": null,
                            "filename": "storage/data/image/property/property_photos/P-PP-rumah_di_cijera_gemp5-20240202.jpeg",
                            "is_cover": "1"
                        },
                        {
                            "caption": null,
                            "filename": "storage/data/image/property/property_photos/P-PP-rumah_di_cijera_gemp6-20240202.jpeg",
                            "is_cover": "0"
                        }
                    ]
                },
                {
                    "property_code": "PT_Kosan-122023141499432",
                    "title": "Kost Eksklusif Palagan Suite",
                    "headline": "Kost Eksklusif Jl Palagan Dekat Masjid Suciati, SCH, UGM, Jl Gito-gati",
                    "slug": "kosan-murah-khusus-cowok",
                    "property_type": {
                        "name": "Kosan",
                        "icon": "storage/data/image/property_type/U-PP-Kosan-20231216.svg"
                    },
                    "listing_type": "sell",
                    "posted_at": "2024-02-09 16:42:02",
                    "price": "2800000000",
                    "photo": "storage/data/image/property/property_photos/P-PP-kost_eksklusif_palag1-20240202.jpeg",
                    "address": {
                        "address": "Jalan Palagan",
                        "district": "NGAGLIK",
                        "city": "KABUPATEN SLEMAN",
                        "province": "DI YOGYAKARTA"
                    },
                    "certificate": "SHM",
                    "count_views": 77,
                    "count_leads": 34,
                    "status": "active",
                    "bedroom": "50",
                    "bathroom": "55",
                    "is_favorites": false,
                    "area": "5500",
                    "agent": {
                        "full_name": "Alex (Agen)",
                        "picture_profile_file": "storage/data/image/users/LFT-alex-agen-20240219.jpeg"
                    },
                    "property_photo": [
                        {
                            "caption": null,
                            "filename": "storage/data/image/property/property_photos/P-PP-kost_putra_haris_pog0-20231214.jpg",
                            "is_cover": "0"
                        },
                        {
                            "caption": null,
                            "filename": "storage/data/image/property/property_photos/P-PP-kost_eksklusif_palag1-20240202.jpeg",
                            "is_cover": "1"
                        },
                        {
                            "caption": null,
                            "filename": "storage/data/image/property/property_photos/P-PP-kost_eksklusif_palag2-20240202.jpeg",
                            "is_cover": "0"
                        },
                        {
                            "caption": null,
                            "filename": "storage/data/image/property/property_photos/P-PP-kost_eksklusif_palag3-20240202.jpeg",
                            "is_cover": "0"
                        }
                    ]
                },
                {
                    "property_code": "PT_Kosan-122023231583674",
                    "title": "Dijual Ruko Area Antapani",
                    "headline": "Ruko Pinggir Jalan Raya",
                    "slug": "kos-wisma-gmc-selatan",
                    "property_type": {
                        "name": "Ruko",
                        "icon": "storage/data/image/property_type/U-PP-Ruko-20231216.svg"
                    },
                    "listing_type": "sell",
                    "posted_at": "2024-02-21 14:49:19",
                    "price": "2750000000",
                    "photo": "storage/data/image/property/property_photos/P-PP-dijual_ruko_area_ant4-20240202.jpeg",
                    "address": {
                        "address": "Jl. Antapani Raya",
                        "district": "LELES",
                        "city": "KABUPATEN CIANJUR",
                        "province": "JAWA BARAT"
                    },
                    "certificate": "SHM",
                    "count_views": 41,
                    "count_leads": 33,
                    "status": "active",
                    "bedroom": "5",
                    "bathroom": "4",
                    "is_favorites": false,
                    "area": "800",
                    "agent": {
                        "full_name": "Alex (Agen)",
                        "picture_profile_file": "storage/data/image/users/LFT-alex-agen-20240219.jpeg"
                    },
                    "property_photo": [
                        {
                            "caption": null,
                            "filename": "storage/data/image/property/property_photos/P-PP-dijual_ruko_area_ant2-20240202.jpeg",
                            "is_cover": "0"
                        },
                        {
                            "caption": null,
                            "filename": "storage/data/image/property/property_photos/P-PP-dijual_ruko_area_ant3-20240202.jpeg",
                            "is_cover": "0"
                        },
                        {
                            "caption": null,
                            "filename": "storage/data/image/property/property_photos/P-PP-dijual_ruko_area_ant4-20240202.jpeg",
                            "is_cover": "1"
                        },
                        {
                            "caption": null,
                            "filename": "storage/data/image/property/property_photos/P-PP-dijual_ruko_area_ant5-20240202.jpeg",
                            "is_cover": "0"
                        }
                    ]
                },
                {
                    "property_code": "PT_Apartemen-122023291446903",
                    "title": "Apartment Pulang ke Uttara",
                    "headline": "Apartment Pulang ke Uttara Dekat UGM UII View Jogja",
                    "slug": "apartment-uttara-pulang",
                    "property_type": {
                        "name": "Apartemen",
                        "icon": "storage/data/image/property_type/U-PP-Apartemen-20231231.svg"
                    },
                    "listing_type": "rent",
                    "posted_at": "2024-02-21 21:15:46",
                    "price": "20000000",
                    "photo": "storage/data/image/property/property_photos/P-PP-apartment_pulang_ke_2-20240202.jpeg",
                    "address": {
                        "address": "Jalan Kaliurang Km.5",
                        "district": "MINGGIR",
                        "city": "KABUPATEN SLEMAN",
                        "province": "DI YOGYAKARTA"
                    },
                    "certificate": "SHM",
                    "count_views": 38,
                    "count_leads": 7,
                    "status": "active",
                    "bedroom": "1",
                    "bathroom": "1",
                    "is_favorites": false,
                    "area": "200",
                    "agent": {
                        "full_name": "Alex (Agen)",
                        "picture_profile_file": "storage/data/image/users/LFT-alex-agen-20240219.jpeg"
                    },
                    "property_photo": [
                        {
                            "caption": null,
                            "filename": "storage/data/image/property/property_photos/P-PP-apartment_pulang_ke_2-20240202.jpeg",
                            "is_cover": "1"
                        },
                        {
                            "caption": null,
                            "filename": "storage/data/image/property/property_photos/P-PP-apartment_pulang_ke_1-20240221.jpeg",
                            "is_cover": "0"
                        }
                    ]
                },
                {
                    "property_code": "PT_Villa-012024132122148",
                    "title": "Sithala Villa Seminyak",
                    "headline": "Sithala Villa Seminyak dekat Pantai Kuta dan akses mudah",
                    "slug": "asdasd-2",
                    "property_type": {
                        "name": "Villa",
                        "icon": "storage/data/image/property_type/U-PP-Villa-20231216.svg"
                    },
                    "listing_type": "rent",
                    "posted_at": "2024-02-23 23:14:55",
                    "price": "71296500",
                    "photo": "storage/data/image/property/property_photos/P-PP-sithala_villa_seminy0-20240202.jpeg",
                    "address": {
                        "address": "Jalan Petenget",
                        "district": "BATURITI",
                        "city": "KABUPATEN TABANAN",
                        "province": "BALI"
                    },
                    "certificate": "SHGB",
                    "count_views": 4,
                    "count_leads": 0,
                    "status": "active",
                    "bedroom": "2",
                    "bathroom": "3",
                    "is_favorites": false,
                    "area": "65",
                    "agent": {
                        "full_name": "Alex (Agen)",
                        "picture_profile_file": "storage/data/image/users/LFT-alex-agen-20240219.jpeg"
                    },
                    "property_photo": [
                        {
                            "caption": null,
                            "filename": "storage/data/image/property/property_photos/P-PP-sithala_villa_seminy0-20240202.jpeg",
                            "is_cover": "1"
                        },
                        {
                            "caption": null,
                            "filename": "storage/data/image/property/property_photos/P-PP-sithala_villa_seminy1-20240202.jpeg",
                            "is_cover": "0"
                        },
                        {
                            "caption": null,
                            "filename": "storage/data/image/property/property_photos/P-PP-sithala_villa_seminy2-20240202.jpeg",
                            "is_cover": "0"
                        },
                        {
                            "caption": null,
                            "filename": "storage/data/image/property/property_photos/P-PP-sithala_villa_seminy3-20240202.jpeg",
                            "is_cover": "0"
                        },
                        {
                            "caption": null,
                            "filename": "storage/data/image/property/property_photos/P-PP-sithala_villa_seminy4-20240202.jpeg",
                            "is_cover": "0"
                        },
                        {
                            "caption": "fghc",
                            "filename": "storage/data/image/property/property_photos/P-PP-sithala_villa_seminy5-20240202.jpeg",
                            "is_cover": "0"
                        }
                    ]
                },
                {
                    "property_code": "PT_Gudang-012024132113441",
                    "title": "Gudang Barang Jasa Cakung",
                    "headline": "Gudang Luas 5000 Meter Persegi Dekat Cakung",
                    "slug": "sdffs",
                    "property_type": {
                        "name": "Gudang",
                        "icon": "storage/data/image/property_type/U-PP-Gudang-20231216.svg"
                    },
                    "listing_type": "rent",
                    "posted_at": "2024-02-21 17:36:57",
                    "price": "33000000000",
                    "photo": "storage/data/image/property/property_photos/P-PP-gudang_barang_jasa_c0-20240202.jpeg",
                    "address": {
                        "address": "Jalan Cakung",
                        "district": "KEPULAUAN SERIBU SELATAN",
                        "city": "KABUPATEN KEPULAUAN SERIBU",
                        "province": "DKI JAKARTA"
                    },
                    "certificate": "SHM",
                    "count_views": 6,
                    "count_leads": 1,
                    "status": "active",
                    "bedroom": null,
                    "bathroom": null,
                    "is_favorites": false,
                    "area": "5500",
                    "agent": {
                        "full_name": "Alex (Agen)",
                        "picture_profile_file": "storage/data/image/users/LFT-alex-agen-20240219.jpeg"
                    },
                    "property_photo": [
                        {
                            "caption": null,
                            "filename": "storage/data/image/property/property_photos/P-PP-gudang_barang_jasa_c0-20240202.jpeg",
                            "is_cover": "1"
                        }
                    ]
                },
                {
                    "property_code": "PT_Restorant-022024200072357",
                    "title": "Restaurant Suka Gurih",
                    "headline": "Restaurant Suka Gurih Dekat Pasar Malam Ngayon",
                    "slug": "fdsfsdf",
                    "property_type": {
                        "name": "Restorant",
                        "icon": "storage/data/image/property_type/U-PP-Resto-20240101.svg"
                    },
                    "listing_type": "sell",
                    "posted_at": "2024-02-29 14:36:08",
                    "price": "2000000000",
                    "photo": "storage/data/image/property/property_photos/P-PP-restaurant_suka_guri0-20240221.jpeg",
                    "address": {
                        "address": "Jalan Kalih",
                        "district": "GONDOKUSUMAN",
                        "city": "KOTA YOGYAKARTA",
                        "province": "DI YOGYAKARTA"
                    },
                    "certificate": "SHGB",
                    "count_views": 17,
                    "count_leads": 14,
                    "status": "active",
                    "bedroom": "2",
                    "bathroom": "2",
                    "is_favorites": false,
                    "area": "20",
                    "agent": {
                        "full_name": "Alex (Agen)",
                        "picture_profile_file": "storage/data/image/users/LFT-alex-agen-20240219.jpeg"
                    },
                    "property_photo": [
                        {
                            "caption": null,
                            "filename": "storage/data/image/property/property_photos/P-PP-restaurant_suka_guri0-20240221.jpeg",
                            "is_cover": "1"
                        }
                    ]
                },
                {
                    "property_code": "PT_Rumah-022024201820432",
                    "title": "Rumah cluster elite Sawojaja",
                    "headline": "Rumah cluster elite Sawojaja tengah kota tingkat 5",
                    "slug": "rumah-baru-minimalis-siap-huni-sawojaja",
                    "property_type": {
                        "name": "Rumah",
                        "icon": "storage/data/image/property_type/U-PP-Rumah-20231231.svg"
                    },
                    "listing_type": "sell",
                    "posted_at": "2024-05-12 23:32:12",
                    "price": "997000000",
                    "photo": "storage/data/image/property/property_photos/P-PP-rumah_baru_minimalis0-20240220.png",
                    "address": {
                        "address": "Jl simpang wisnuwardhana Kedungkandang",
                        "district": "KRATON",
                        "city": "KOTA YOGYAKARTA",
                        "province": "DI YOGYAKARTA"
                    },
                    "certificate": "SHM",
                    "count_views": 76,
                    "count_leads": 43,
                    "status": "active",
                    "bedroom": "3",
                    "bathroom": "1",
                    "is_favorites": false,
                    "area": "500",
                    "agent": {
                        "full_name": "Alex (Agen)",
                        "picture_profile_file": "storage/data/image/users/LFT-alex-agen-20240219.jpeg"
                    },
                    "property_photo": [
                        {
                            "caption": "as",
                            "filename": "storage/data/image/property/property_photos/P-PP-rumah_baru_minimalis0-20240220.png",
                            "is_cover": "1"
                        },
                        {
                            "caption": null,
                            "filename": "storage/data/image/property/property_photos/P-PP-rumah_baru_minimalis1-23420240512.jpg",
                            "is_cover": "0"
                        },
                        {
                            "caption": null,
                            "filename": "storage/data/image/property/property_photos/P-PP-rumah_cluster_elite_2-99820240512.jpg",
                            "is_cover": "0"
                        },
                        {
                            "caption": null,
                            "filename": "storage/data/image/property/property_photos/P-PP-rumah_cluster_elite_3-30620240512.jpg",
                            "is_cover": "0"
                        },
                        {
                            "caption": null,
                            "filename": "storage/data/image/property/property_photos/P-PP-rumah_cluster_elite_4-49220240512.jpg",
                            "is_cover": "0"
                        },
                        {
                            "caption": null,
                            "filename": "storage/data/image/property/property_photos/P-PP-rumah_cluster_elite_5-09820240512.jpg",
                            "is_cover": "0"
                        },
                        {
                            "caption": null,
                            "filename": "storage/data/image/property/property_photos/P-PP-rumah_cluster_elite_6-42120240512.jpg",
                            "is_cover": "0"
                        },
                        {
                            "caption": null,
                            "filename": "storage/data/image/property/property_photos/P-PP-rumah_cluster_elite_7-22520240512.jpg",
                            "is_cover": "0"
                        },
                        {
                            "caption": null,
                            "filename": "storage/data/image/property/property_photos/P-PP-rumah_cluster_elite_8-41420240512.jpg",
                            "is_cover": "0"
                        },
                        {
                            "caption": null,
                            "filename": "storage/data/image/property/property_photos/P-PP-rumah_cluster_elite_9-63720240512.jpg",
                            "is_cover": "0"
                        },
                        {
                            "caption": null,
                            "filename": "storage/data/image/property/property_photos/P-PP-rumah_cluster_elite_10-85720240512.jpg",
                            "is_cover": "0"
                        }
                    ]
                },
                {
                    "property_code": "PT_Rumah-052024081315153",
                    "title": "Perumahan Citra Kalibiru Cibitung Jakarta Utara",
                    "headline": "Rumah di Jakarta",
                    "slug": "rumah-di-jakarta-14",
                    "property_type": {
                        "name": "Rumah",
                        "icon": "storage/data/image/property_type/U-PP-Rumah-20231231.svg"
                    },
                    "listing_type": "sell",
                    "posted_at": "2024-05-08 13:15:51",
                    "price": "1000000000",
                    "photo": null,
                    "address": {
                        "address": "Jl. Citra Kalibiru No. 1",
                        "district": "LEMBAH GUMANTI",
                        "city": "KABUPATEN SOLOK",
                        "province": "SUMATERA BARAT"
                    },
                    "certificate": "SHGB",
                    "count_views": 39,
                    "count_leads": 45,
                    "status": "active",
                    "bedroom": "3",
                    "bathroom": "2",
                    "is_favorites": false,
                    "area": "500",
                    "agent": {
                        "full_name": "Alex (Agen)",
                        "picture_profile_file": "storage/data/image/users/LFT-alex-agen-20240219.jpeg"
                    },
                    "property_photo": []
                },
                {
                    "property_code": "PT_Rumah-052024081387307",
                    "title": "Perumahan Citra Kalibiru Cibitung Jakarta Utara",
                    "headline": "Rumah di Jakarta",
                    "slug": "rumah-di-jakarta-23",
                    "property_type": {
                        "name": "Rumah",
                        "icon": "storage/data/image/property_type/U-PP-Rumah-20231231.svg"
                    },
                    "listing_type": "sell",
                    "posted_at": "2024-05-08 13:47:03",
                    "price": "1000000000",
                    "photo": "storage/data/image/property/property_photos/P-PP-perumahan_citra_kali0-21920240508.jpg",
                    "address": {
                        "address": "Jl. Citra Kalibiru No. 1",
                        "district": "LEMBAH GUMANTI",
                        "city": "KABUPATEN SOLOK",
                        "province": "SUMATERA BARAT"
                    },
                    "certificate": "SHGB",
                    "count_views": 15,
                    "count_leads": 83,
                    "status": "active",
                    "bedroom": "3",
                    "bathroom": "2",
                    "is_favorites": false,
                    "area": "500",
                    "agent": {
                        "full_name": "Alex (Agen)",
                        "picture_profile_file": "storage/data/image/users/LFT-alex-agen-20240219.jpeg"
                    },
                    "property_photo": [
                        {
                            "caption": null,
                            "filename": "storage/data/image/property/property_photos/P-PP-perumahan_citra_kali0-21920240508.jpg",
                            "is_cover": "1"
                        }
                    ]
                }
            ],
            "pagination": {
                "current_page": 1,
                "total": 20,
                "per_page": 10,
                "last_page": 2,
                "next_page_url": "https://beta.propertio.id/api/v1/agent/ID_12202308133364?page=2",
                "prev_page_url": null,
                "first_page_url": "https://beta.propertio.id/api/v1/agent/ID_12202308133364?page=1",
                "last_page_url": "https://beta.propertio.id/api/v1/agent/ID_12202308133364?page=2",
                "links": [
                    {
                        "url": null,
                        "label": "&laquo;",
                        "active": false
                    },
                    {
                        "url": "https://beta.propertio.id/api/v1/agent/ID_12202308133364?page=1",
                        "label": "1",
                        "active": true
                    },
                    {
                        "url": "https://beta.propertio.id/api/v1/agent/ID_12202308133364?page=2",
                        "label": "2",
                        "active": false
                    },
                    {
                        "url": "https://beta.propertio.id/api/v1/agent/ID_12202308133364?page=2",
                        "label": "&raquo;",
                        "active": false
                    }
                ]
            }
        }
    }
}