{
    "status": "success",
    "message": "berhasil memuat data",
    "data": {
        "agents": [
            {
                "account_id": "ID_05202405188211",
                "email": "asdsad@mail.com",
                "role": "agent",
                "full_name": "asdasdasd asdasdasd",
                "phone": "6223123123123",
                "picture_profile_file": "assets/images/default/avatar.jpg",
                "image_cover": null,
                "address": "123123123",
                "city": "KABUPATEN KEPULAUAN MENTAWAI",
                "province": "SUMATERA BARAT",
                "description": null,
                "website": null,
                "area_specialist": null,
                "languages": [],
                "specialists": []
            },
            {
                "account_id": "ID_06202427213317",
                "email": "agenttesting4044@mail.com",
                "role": "agent",
                "full_name": "agent testing LFkvH",
                "phone": "628123456789",
                "picture_profile_file": "storage/data/image/users/LFT-agent-testing-lfkvh-20240627.png",
                "image_cover": null,
                "address": "Jalan Test",
                "city": "KABUPATEN SLEMAN",
                "province": "DI YOGYAKARTA",
                "description": null,
                "website": null,
                "area_specialist": null,
                "languages": [],
                "specialists": []
            },
            {
                "account_id": "ID_05202424212516",
                "email": "usertesting579@mail.com",
                "role": "agent",
                "full_name": "agent testing",
                "phone": "6208123456789",
                "picture_profile_file": "storage/data/image/users/LFT-agent-testing-20240524.jpg",
                "image_cover": null,
                "address": "Jl. Testing No. 1, Jakarta",
                "city": "KABUPATEN SLEMAN",
                "province": "DI YOGYAKARTA",
                "description": null,
                "website": null,
                "area_specialist": null,
                "languages": [],
                "specialists": []
            },
            {
                "account_id": "ID_06202419183875",
                "email": "agenttesting911@mail.com",
                "role": "agent",
                "full_name": "agent testing voGRR",
                "phone": "628123456789",
                "picture_profile_file": "storage/data/image/users/LFT-agent-testing-vogrr-20240619.png",
                "image_cover": null,
                "address": "Jalan Test",
                "city": "KABUPATEN SLEMAN",
                "province": "DI YOGYAKARTA",
                "description": null,
                "website": null,
                "area_specialist": null,
                "languages": [],
                "specialists": []
            },
            {
                "account_id": "ID_06202419178133",
                "email": "testing1@mail.com",
                "role": "agent",
                "full_name": "akun testing",
                "phone": "62846264343",
                "picture_profile_file": "storage/data/image/users/LFT-akun-testing-20240619.png",
                "image_cover": null,
                "address": "Bogor",
                "city": "KABUPATEN BOGOR",
                "province": "JAWA BARAT",
                "description": null,
                "website": null,
                "area_specialist": null,
                "languages": [],
                "specialists": []
            },
            {
                "account_id": "ID_05202430201026",
                "email": "agenttesting694@mail.com",
                "role": "agent",
                "full_name": "agent testing NddJt",
                "phone": "628123456789",
                "picture_profile_file": "storage/data/image/users/LFT-agent-testing-nddjt-20240530.png",
                "image_cover": null,
                "address": "Jalan Test",
                "city": "KABUPATEN SLEMAN",
                "province": "DI YOGYAKARTA",
                "description": null,
                "website": null,
                "area_specialist": null,
                "languages": [],
                "specialists": []
            },
            {
                "account_id": "ID_05202430203124",
                "email": "agenttesting695@mail.com",
                "role": "agent",
                "full_name": "agent testing CNITk",
                "phone": "628123456789",
                "picture_profile_file": "storage/data/image/users/LFT-agent-testing-cnitk-20240530.png",
                "image_cover": null,
                "address": "Jalan Test",
                "city": "KABUPATEN SLEMAN",
                "province": "DI YOGYAKARTA",
                "description": null,
                "website": null,
                "area_specialist": null,
                "languages": [],
                "specialists": []
            },
            {
                "account_id": "ID_06202427219127",
                "email": "agenttt@mail.com",
                "role": "agent",
                "full_name": "agent testingggg",
                "phone": "6289687716290",
                "picture_profile_file": "storage/data/image/users/LFT-agent-testingggg-20240627.png",
                "image_cover": null,
                "address": "Gunung kidul kulon ngalor sitik",
                "city": "KABUPATEN GUNUNG KIDUL",
                "province": "DI YOGYAKARTA",
                "description": null,
                "website": null,
                "area_specialist": null,
                "languages": [],
                "specialists": []
            },
            {
                "account_id": "ID_01202413092180",
                "email": "agent3@mail.com",
                "role": "agent",
                "full_name": "Agen John",
                "phone": "62812343443",
                "picture_profile_file": "storage/data/image/users/LFT-agen-name-20240119.png",
                "image_cover": null,
                "address": "Jl. Munggur Timur",
                "city": "KABUPATEN SIJUNJUNG",
                "province": "SUMATERA BARAT",
                "description": "Contrary to popular belief, Lorem Ipsum is not simply random text. It has roots in a piece of classical Latin literature from 45 BC, making it over 2000 years old. Richard McClintock, a Latin professor at Hampden-Sydney College in Virginia, looked up one of the more obscure Latin words, consectetur, from a Lorem Ipsum passage, and going through the cites of the word in classical literature, discovered the undoubtable source. Lorem Ipsum comes from sections 1.10.32 and 1.10.33 of \"de Finibus Bonorum et Malorum\" (The Extremes of Good and Evil) by Cicero, written in 45 BC. This book is a treatise on the theory of ethics, very popular during the Renaissance. The first line of Lorem Ipsum, \"Lorem ipsum dolor sit amet..\", comes from a line in section 1.10.32.",
                "website": null,
                "area_specialist": null,
                "languages": [
                    "Albanian",
                    "Amharic"
                ],
                "specialists": [
                    {
                        "name": "Ruang usaha",
                        "icon": "storage/data/image/property_type/U-PP-Ruang usaha-20231216.svg"
                    },
                    {
                        "name": "Kosan",
                        "icon": "storage/data/image/property_type/U-PP-Kosan-20231216.svg"
                    }
                ]
            },
            {
                "account_id": "ID_01202401132075",
                "email": "ucup@gmail.com",
                "role": "agent",
                "full_name": "Yusuf Muhammad",
                "phone": "081234567",
                "picture_profile_file": "storage/data/image/users/LFT-yusuf-muhammad-20240101.jpeg",
                "image_cover": null,
                "address": "jalan langas",
                "city": "KOTA LANGSA",
                "province": "ACEH",
                "description": null,
                "website": null,
                "area_specialist": null,
                "languages": [],
                "specialists": []
            },
            {
                "account_id": "ID_06202406197584",
                "email": "testingagentdxTibRqGNQ@mail.com",
                "role": "agent",
                "full_name": "a XRyVI",
                "phone": "625864537253",
                "picture_profile_file": "storage/data/image/users/LFT-a-xryvi-20240606.png",
                "image_cover": null,
                "address": "Yogyakarta",
                "city": "KOTA YOGYAKARTA",
                "province": "DI YOGYAKARTA",
                "description": null,
                "website": null,
                "area_specialist": null,
                "languages": [],
                "specialists": []
            },
            {
                "account_id": "ID_05202430238779",
                "email": "agenttesting77@mail.com",
                "role": "agent",
                "full_name": "agent testing RJgHO",
                "phone": "628123456789",
                "picture_profile_file": "storage/data/image/users/LFT-agent-testing-rjgho-20240530.png",
                "image_cover": null,
                "address": "Jalan Test",
                "city": "KABUPATEN SLEMAN",
                "province": "DI YOGYAKARTA",
                "description": null,
                "website": null,
                "area_specialist": null,
                "languages": [],
                "specialists": []
            },
            {
                "account_id": "ID_12202308133364",
                "email": "agent@mail.com",
                "role": "agent",
                "full_name": "Alex (Agen)",
                "phone": "626262626262",
                "picture_profile_file": "storage/data/image/users/LFT-alex-agen-20240219.jpeg",
                "image_cover": null,
                "address": "yogyaka",
                "city": "KABUPATEN NIAS",
                "province": "SUMATERA UTARA",
                "description": "Saya sangat tertarik dengan proyek properti yang Anda promosikan. Lokasinya sangat menarik dan fasilitas yang ditawarkan sangat sesuai dengan kebutuhan saya. Saya ingin segera mendapatkan informasi lebih lanjut dan melakukan pembelian.",
                "website": "propertio.id",
                "area_specialist": "yogyakarta",
                "languages": [
                    "English"
                ],
                "specialists": [
                    {
                        "name": "Apartemen",
                        "icon": "storage/data/image/property_type/U-PP-Apartemen-20231231.svg"
                    }
                ]
            },
            {
                "account_id": "ID_06202419175632",
                "email": "agenttesting983@mail.com",
                "role": "agent",
                "full_name": "agent testing uoOFQ",
                "phone": "628123456789",
                "picture_profile_file": "storage/data/image/users/LFT-agent-testing-uoofq-20240619.png",
                "image_cover": null,
                "address": "Jalan Test",
                "city": "KABUPATEN SLEMAN",
                "province": "DI YOGYAKARTA",
                "description": null,
                "website": null,
                "area_specialist": null,
                "languages": [],
                "specialists": []
            },
            {
                "account_id": "ID_06202406194789",
                "email": "testingagentheqSGoqUaZ@mail.com",
                "role": "agent",
                "full_name": "Testing GEpZn",
                "phone": "628965374363",
                "picture_profile_file": "storage/data/image/users/LFT-testing-gepzn-20240606.png",
                "image_cover": null,
                "address": "Yogyakarta",
                "city": "KOTA YOGYAKARTA",
                "province": "DI YOGYAKARTA",
                "description": null,
                "website": null,
                "area_specialist": null,
                "languages": [],
                "specialists": []
            },
            {
                "account_id": "ID_06202419182084",
                "email": "agenttesting7701@mail.com",
                "role": "agent",
                "full_name": "agent testing WnMSn",
                "phone": "628123456789",
                "picture_profile_file": "storage/data/image/users/LFT-agent-testing-wnmsn-20240619.png",
                "image_cover": null,
                "address": "Jalan Test",
                "city": "KABUPATEN SLEMAN",
                "province": "DI YOGYAKARTA",
                "description": null,
                "website": null,
                "area_specialist": null,
                "languages": [],
                "specialists": []
            }
        ],
        "pagination": {
            "current_page": 1,
            "total": 49,
            "per_page": 16,
            "last_page": 4,
            "next_page_url": "https://beta.propertio.id/api/v1/agent?page=2",
            "prev_page_url": null,
            "first_page_url": "https://beta.propertio.id/api/v1/agent?page=1",
            "last_page_url": "https://beta.propertio.id/api/v1/agent?page=4",
            "links": [
                {
                    "url": null,
                    "label": "&laquo;",
                    "active": false
                },
                {
                    "url": "https://beta.propertio.id/api/v1/agent?page=1",
                    "label": "1",
                    "active": true
                },
                {
                    "url": "https://beta.propertio.id/api/v1/agent?page=2",
                    "label": "2",
                    "active": false
                },
                {
                    "url": "https://beta.propertio.id/api/v1/agent?page=3",
                    "label": "3",
                    "active": false
                },
                {
                    "url": "https://beta.propertio.id/api/v1/agent?page=4",
                    "label": "4",
                    "active": false
                },
                {
                    "url": "https://beta.propertio.id/api/v1/agent?page=2",
                    "label": "&raquo;",
                    "active": false
                }
            ]
        }
    }
}